Survey_Analysis-.utf8
…
data %>% 
  print(n = 10)

## # A tibble: 116 x 250
##    iso3  countryname   region    q1_pp_nw  q1_pp_pg q1_pp_ps q1_pp_dnk q1_pp_nc 
##    <chr> <chr>         <chr>     <chr>     <chr>    <chr>    <chr>     <chr>    
##  1 MUS   Mauritius     Africa (… Nation-w… <NA>     Phasing… <NA>      <NA>     
##  2 VEN   Venezuela (B… Latin Am… <NA>      <NA>     <NA>     <NA>      Schools …
##  3 DJI   Djibouti      Africa (… Nation-w… <NA>     <NA>     <NA>      <NA>     
##  4 ARG   Argentina     Latin Am… <NA>      Partial… Phasing… <NA>      <NA>     
##  5 GTM   Guatemala     Latin Am… <NA>      Partial… Phasing… <NA>      <NA>     
##  6 TZA   United Repub… Africa (… Nation-w… <NA>     <NA>     <NA>      <NA>     
##  7 SEN   Senegal       Africa (… <NA>      <NA>     <NA>     Do not k… <NA>     
##  8 FJI   Fiji          Oceania   Nation-w… <NA>     <NA>     <NA>      <NA>     
##  9 PRI   Puerto Rico   Latin Am… Nation-w… <NA>     <NA>     <NA>      <NA>     
## 10 BLZ   Belize        Latin Am… Nation-w… <NA>     <NA>     <NA>      <NA>     
## # … with 106 more rows, and 242 more variables: q1_pp_eo <date>, q1_p_nw <chr>,
## #   q1_p_pg <chr>, q1_p_ps <chr>, q1_p_dnk <chr>, q1_p_nc <chr>,
## #   q1_p_eo <date>, q1_ls_nw <chr>, q1_ls_pg <chr>, q1_ls_ps <chr>,
## #   q1_ls_dnk <chr>, q1_ls_nc <chr>, q1_ls_eo <date>, q1_us_nw <chr>,
## #   q1_us_pg <chr>, q1_us_ps <chr>, q1_us_dnk <chr>, q1_us_nc <chr>,
## #   q1_us_eo <date>, q2 <chr>, q3_adj <chr>, q3_adj_newend <chr>,
## #   q3_adj_newenddate <date>, q3_adj_newstart <chr>,
## #   q3_adj_newstartdate <date>, q3_increasewhenopen <chr>,
## #   q3_increasewhenopen_specify <dbl>, q3_remedical <chr>,
…
Unique value into each categorical variables

unique(data)

## # A tibble: 116 x 250
##    iso3  countryname   region    q1_pp_nw  q1_pp_pg q1_pp_ps q1_pp_dnk q1_pp_nc 
##    <chr> <chr>         <chr>     <chr>     <chr>    <chr>    <chr>     <chr>    
##  1 MUS   Mauritius     Africa (… Nation-w… <NA>     Phasing… <NA>      <NA>     
##  2 VEN   Venezuela (B… Latin Am… <NA>      <NA>     <NA>     <NA>      Schools …
##  3 DJI   Djibouti      Africa (… Nation-w… <NA>     <NA>     <NA>      <NA>     
##  4 ARG   Argentina     Latin Am… <NA>      Partial… Phasing… <NA>      <NA>     
##  5 GTM   Guatemala     Latin Am… <NA>      Partial… Phasing… <NA>      <NA>     
##  6 TZA   United Repub… Africa (… Nation-w… <NA>     <NA>     <NA>      <NA>     
##  7 SEN   Senegal       Africa (… <NA>      <NA>     <NA>     Do not k… <NA>     
##  8 FJI   Fiji          Oceania   Nation-w… <NA>     <NA>     <NA>      <NA>     
##  9 PRI   Puerto Rico   Latin Am… Nation-w… <NA>     <NA>     <NA>      <NA>     
## 10 BLZ   Belize        Latin Am… Nation-w… <NA>     <NA>     <NA>      <NA>     
## # … with 106 more rows, and 242 more variables: q1_pp_eo <date>, q1_p_nw <chr>,
## #   q1_p_pg <chr>, q1_p_ps <chr>, q1_p_dnk <chr>, q1_p_nc <chr>,
## #   q1_p_eo <date>, q1_ls_nw <chr>, q1_ls_pg <chr>, q1_ls_ps <chr>,
## #   q1_ls_dnk <chr>, q1_ls_nc <chr>, q1_ls_eo <date>, q1_us_nw <chr>,
## #   q1_us_pg <chr>, q1_us_ps <chr>, q1_us_dnk <chr>, q1_us_nc <chr>,
## #   q1_us_eo <date>, q2 <chr>, q3_adj <chr>, q3_adj_newend <chr>,
## #   q3_adj_newenddate <date>, q3_adj_newstart <chr>,
## #   q3_adj_newstartdate <date>, q3_increasewhenopen <chr>,
## #   q3_increasewhenopen_specify <dbl>, q3_remedical <chr>,
…
n_miss(num_var) 

## [1] 2129

Data shape without missing value

n_complete(num_var) 

## [1] 771

Display each missing value by row

as_shadow(num_var)

## # A tibble: 116 x 25
##    q3_increasewhenopen_spe… q6_radio_pp_yes_… q6_radio_p_yes_… q6_radio_ls_yes_…
##    <fct>                    <fct>             <fct>            <fct>            
##  1 NA                       NA                NA               NA               
##  2 NA                       !NA               !NA              !NA              
##  3 NA                       NA                NA               NA               
##  4 NA                       !NA               !NA              !NA              
##  5 NA                       NA                NA               NA               
##  6 NA                       NA                NA               NA               
##  7 NA                       NA                NA               NA               
##  8 NA                       NA                NA               NA               
##  9 NA                       NA                NA               NA               
## 10 NA                       !NA               !NA              NA               
## # … with 106 more rows, and 21 more variables: q6_radio_us_yes_NA <fct>,
## #   q6_tv_pp_yes_NA <fct>, q6_tv_p_yes_NA <fct>, q6_tv_ls_yes_NA <fct>,
## #   q6_tv_us_yes_NA <fct>, q7_radio_yes_pp_NA <fct>, q7_tv_yes_pp_NA <fct>,
## #   q7_online_yes_pp_NA <fct>, q7_paper_yes_pp_NA <fct>,
## #   q7_radio_yes_p_NA <fct>, q7_tv_yes_p_NA <fct>, q7_online_yes_p_NA <fct>,
## #   q7_paper_yes_p_NA <fct>, q7_radio_yes_ls_NA <fct>, q7_tv_yes_ls_NA <fct>,
## #   q7_online_yes_ls_NA <fct>, q7_paper_yes_ls_NA <fct>,
## #   q7_radio_yes_us_NA <fct>, q7_tv_yes_us_NA <fct>, q7_online_yes_us_NA <fct>,
## #   q7_paper_yes_us_NA <fct>

bind_shadow(num_var)

## # A tibble: 116 x 50
##    q3_increasewhenopen_specify q6_radio_pp_yes q6_radio_p_yes q6_radio_ls_yes
##                          <dbl>           <dbl>          <dbl>           <dbl>
##  1                          NA              NA             NA              NA
##  2                          NA              10             10              10
##  3                          NA              NA             NA              NA
##  4                          NA               5              5               5
##  5                          NA              NA             NA              NA
##  6                          NA              NA             NA              NA
##  7                          NA              NA             NA              NA
##  8                          NA              NA             NA              NA
##  9                          NA              NA             NA              NA
## 10                          NA               4              4              NA
## # … with 106 more rows, and 46 more variables: q6_radio_us_yes <dbl>,
## #   q6_tv_pp_yes <dbl>, q6_tv_p_yes <dbl>, q6_tv_ls_yes <dbl>,
## #   q6_tv_us_yes <dbl>, q7_radio_yes_pp <dbl>, q7_tv_yes_pp <dbl>,
## #   q7_online_yes_pp <dbl>, q7_paper_yes_pp <dbl>, q7_radio_yes_p <dbl>,
## #   q7_tv_yes_p <dbl>, q7_online_yes_p <dbl>, q7_paper_yes_p <dbl>,
## #   q7_radio_yes_ls <dbl>, q7_tv_yes_ls <dbl>, q7_online_yes_ls <dbl>,
## #   q7_paper_yes_ls <dbl>, q7_radio_yes_us <dbl>, q7_tv_yes_us <dbl>,
## #   q7_online_yes_us <dbl>, q7_paper_yes_us <dbl>,
## #   q3_increasewhenopen_specify_NA <fct>, q6_radio_pp_yes_NA <fct>,
…
as_tibble(num_var)

## # A tibble: 116 x 25
##    q3_increasewhenopen_specify q6_radio_pp_yes q6_radio_p_yes q6_radio_ls_yes
##                          <dbl>           <dbl>          <dbl>           <dbl>
##  1                          NA              NA             NA              NA
##  2                          NA              10             10              10
##  3                          NA              NA             NA              NA
##  4                          NA               5              5               5
##  5                          NA              NA             NA              NA
##  6                          NA              NA             NA              NA
##  7                          NA              NA             NA              NA
##  8                          NA              NA             NA              NA
##  9                          NA              NA             NA              NA
## 10                          NA               4              4              NA
## # … with 106 more rows, and 21 more variables: q6_radio_us_yes <dbl>,
## #   q6_tv_pp_yes <dbl>, q6_tv_p_yes <dbl>, q6_tv_ls_yes <dbl>,
## #   q6_tv_us_yes <dbl>, q7_radio_yes_pp <dbl>, q7_tv_yes_pp <dbl>,
## #   q7_online_yes_pp <dbl>, q7_paper_yes_pp <dbl>, q7_radio_yes_p <dbl>,
## #   q7_tv_yes_p <dbl>, q7_online_yes_p <dbl>, q7_paper_yes_p <dbl>,
## #   q7_radio_yes_ls <dbl>, q7_tv_yes_ls <dbl>, q7_online_yes_ls <dbl>,
## #   q7_paper_yes_ls <dbl>, q7_radio_yes_us <dbl>, q7_tv_yes_us <dbl>,
## #   q7_online_yes_us <dbl>, q7_paper_yes_us <dbl>

num_var %>% 
  print(n = 10)

## # A tibble: 116 x 25
##    q3_increasewhenopen_specify q6_radio_pp_yes q6_radio_p_yes q6_radio_ls_yes
##                          <dbl>           <dbl>          <dbl>           <dbl>
##  1                          NA              NA             NA              NA
##  2                          NA              10             10              10
##  3                          NA              NA             NA              NA
##  4                          NA               5              5               5
##  5                          NA              NA             NA              NA
##  6                          NA              NA             NA              NA
##  7                          NA              NA             NA              NA
##  8                          NA              NA             NA              NA
##  9                          NA              NA             NA              NA
## 10                          NA               4              4              NA
## # … with 106 more rows, and 21 more variables: q6_radio_us_yes <dbl>,
## #   q6_tv_pp_yes <dbl>, q6_tv_p_yes <dbl>, q6_tv_ls_yes <dbl>,
## #   q6_tv_us_yes <dbl>, q7_radio_yes_pp <dbl>, q7_tv_yes_pp <dbl>,
## #   q7_online_yes_pp <dbl>, q7_paper_yes_pp <dbl>, q7_radio_yes_p <dbl>,
## #   q7_tv_yes_p <dbl>, q7_online_yes_p <dbl>, q7_paper_yes_p <dbl>,
## #   q7_radio_yes_ls <dbl>, q7_tv_yes_ls <dbl>, q7_online_yes_ls <dbl>,
## #   q7_paper_yes_ls <dbl>, q7_radio_yes_us <dbl>, q7_tv_yes_us <dbl>,
## #   q7_online_yes_us <dbl>, q7_paper_yes_us <dbl>
…
missing.values <- num_var %>%
    gather(key = "key", value = "val") %>%
    mutate(is.missing = is.na(val)) %>% #Mutate adds new variables and preserves existing
    group_by(key, is.missing) %>%
    summarise(num.missing = n()) %>% #n() mean summarize the result of the grouping by the number of rows in each group
    filter(is.missing==T) %>% # from is.missing col filter val are true 
    #select(is.missing) %>% # delect col is.missing
    arrange(desc(num.missing)) 

## `summarise()` has grouped output by 'key'. You can override using the `.groups` argument.

missing.values

## # A tibble: 25 x 3
## # Groups:   key [25]
##    key                         is.missing num.missing
##    <chr>                       <lgl>            <int>
##  1 q3_increasewhenopen_specify TRUE                98
##  2 q6_radio_pp_yes             TRUE                95
##  3 q6_radio_us_yes             TRUE                95
##  4 q7_paper_yes_pp             TRUE                95
##  5 q7_radio_yes_pp             TRUE                95
##  6 q6_radio_ls_yes             TRUE                93
##  7 q7_radio_yes_us             TRUE                93
##  8 q7_radio_yes_ls             TRUE                92
##  9 q7_radio_yes_p              TRUE                92
## 10 q7_tv_yes_pp                TRUE                92
## # … with 15 more rows
…
#data <- data[complete.cases(data), ]

df <- data %>%
    group_by(iso3, countryname) %>%
    mutate(q7_online_yes_pp = case_when(is.na(q7_online_yes_pp) ~ mean(q7_online_yes_pp, na.rm=TRUE),
                               TRUE ~ as.numeric(q7_online_yes_pp) 
                              )
           )

data %>% 
  group_by(iso3) %>% 
  mutate(profit= ifelse(is.na(q7_online_yes_pp), mean(q7_online_yes_pp, na.rm=TRUE), q7_online_yes_pp))

## # A tibble: 116 x 251
## # Groups:   iso3 [116]
##    iso3  countryname   region    q1_pp_nw  q1_pp_pg q1_pp_ps q1_pp_dnk q1_pp_nc 
##    <chr> <chr>         <chr>     <chr>     <chr>    <chr>    <chr>     <chr>    
##  1 MUS   Mauritius     Africa (… Nation-w… <NA>     Phasing… <NA>      <NA>     
##  2 VEN   Venezuela (B… Latin Am… <NA>      <NA>     <NA>     <NA>      Schools …
##  3 DJI   Djibouti      Africa (… Nation-w… <NA>     <NA>     <NA>      <NA>     
##  4 ARG   Argentina     Latin Am… <NA>      Partial… Phasing… <NA>      <NA>     
##  5 GTM   Guatemala     Latin Am… <NA>      Partial… Phasing… <NA>      <NA>     
##  6 TZA   United Repub… Africa (… Nation-w… <NA>     <NA>     <NA>      <NA>     
##  7 SEN   Senegal       Africa (… <NA>      <NA>     <NA>     Do not k… <NA>     
##  8 FJI   Fiji          Oceania   Nation-w… <NA>     <NA>     <NA>      <NA>     
##  9 PRI   Puerto Rico   Latin Am… Nation-w… <NA>     <NA>     <NA>      <NA>     
## 10 BLZ   Belize        Latin Am… Nation-w… <NA>     <NA>     <NA>      <NA>     
## # … with 106 more rows, and 243 more variables: q1_pp_eo <date>, q1_p_nw <chr>,
## #   q1_p_pg <chr>, q1_p_ps <chr>, q1_p_dnk <chr>, q1_p_nc <chr>,
## #   q1_p_eo <date>, q1_ls_nw <chr>, q1_ls_pg <chr>, q1_ls_ps <chr>,
## #   q1_ls_dnk <chr>, q1_ls_nc <chr>, q1_ls_eo <date>, q1_us_nw <chr>,
## #   q1_us_pg <chr>, q1_us_ps <chr>, q1_us_dnk <chr>, q1_us_nc <chr>,
## #   q1_us_eo <date>, q2 <chr>, q3_adj <chr>, q3_adj_newend <chr>,
## #   q3_adj_newenddate <date>, q3_adj_newstart <chr>,
## #   q3_adj_newstartdate <date>, q3_increasewhenopen <chr>,
## #   q3_increasewhenopen_specify <dbl>, q3_remedical <chr>,
…
